<?xml version="1.0" encoding="UTF-8"?>
<testng-results skipped="0" failed="0" ignored="0" total="7" passed="7">
  <reporter-output>
  </reporter-output>
  <suite name="Command line suite" duration-ms="3585" started-at="2023-06-13T10:14:28 EET" finished-at="2023-06-13T10:14:31 EET">
    <groups>
    </groups>
    <test name="Command line test" duration-ms="3585" started-at="2023-06-13T10:14:28 EET" finished-at="2023-06-13T10:14:31 EET">
      <class name="Test.GET_StatusCode_Test">
        <test-method status="PASS" signature="Test_Device()[pri:0, instance:Test.GET_StatusCode_Test@25c53f74]" name="Test_Device" duration-ms="437" started-at="2023-06-13T10:14:29 EET" finished-at="2023-06-13T10:14:29 EET">
          <reporter-output>
          </reporter-output>
        </test-method> <!-- Test_Device -->
      </class> <!-- Test.GET_StatusCode_Test -->
      <class name="Test.PUT_Device_Test">
        <test-method status="PASS" signature="BeforeMethod()[pri:0, instance:Test.PUT_Device_Test@6be7bf6d]" name="BeforeMethod" is-config="true" duration-ms="1" started-at="2023-06-13T10:14:28 EET" finished-at="2023-06-13T10:14:28 EET">
          <reporter-output>
          </reporter-output>
        </test-method> <!-- BeforeMethod -->
        <test-method status="PASS" signature="PUT_Update_Success()[pri:1, instance:Test.PUT_Device_Test@6be7bf6d]" name="PUT_Update_Success" duration-ms="358" started-at="2023-06-13T10:14:30 EET" description="200 Success" finished-at="2023-06-13T10:14:30 EET">
          <reporter-output>
          </reporter-output>
        </test-method> <!-- PUT_Update_Success -->
        <test-method status="PASS" signature="PUT_Update_Assert_Test()[pri:2, instance:Test.PUT_Device_Test@6be7bf6d]" name="PUT_Update_Assert_Test" duration-ms="780" started-at="2023-06-13T10:14:30 EET" finished-at="2023-06-13T10:14:31 EET">
          <reporter-output>
          </reporter-output>
        </test-method> <!-- PUT_Update_Assert_Test -->
      </class> <!-- Test.PUT_Device_Test -->
      <class name="Test.DELETE_Device_Test">
        <test-method status="PASS" signature="BeforeMethod()[pri:0, instance:Test.DELETE_Device_Test@79d743e6]" name="BeforeMethod" is-config="true" duration-ms="4" started-at="2023-06-13T10:14:28 EET" finished-at="2023-06-13T10:14:28 EET">
          <reporter-output>
          </reporter-output>
        </test-method> <!-- BeforeMethod -->
        <test-method status="PASS" signature="Delete_Update_Success()[pri:0, instance:Test.DELETE_Device_Test@79d743e6]" name="Delete_Update_Success" duration-ms="454" started-at="2023-06-13T10:14:28 EET" description="200 Success" finished-at="2023-06-13T10:14:28 EET">
          <reporter-output>
          </reporter-output>
        </test-method> <!-- Delete_Update_Success -->
        <test-method status="PASS" signature="Delete_Update_Assert_Test()[pri:2, instance:Test.DELETE_Device_Test@79d743e6]" name="Delete_Update_Assert_Test" duration-ms="783" started-at="2023-06-13T10:14:28 EET" finished-at="2023-06-13T10:14:29 EET">
          <reporter-output>
          </reporter-output>
        </test-method> <!-- Delete_Update_Assert_Test -->
      </class> <!-- Test.DELETE_Device_Test -->
      <class name="Test.POST_Device_Test">
        <test-method status="PASS" signature="BeforeMethod()[pri:0, instance:Test.POST_Device_Test@ab20d7c]" name="BeforeMethod" is-config="true" duration-ms="0" started-at="2023-06-13T10:14:28 EET" finished-at="2023-06-13T10:14:28 EET">
          <reporter-output>
          </reporter-output>
        </test-method> <!-- BeforeMethod -->
        <test-method status="PASS" signature="POST_Create_Success()[pri:1, instance:Test.POST_Device_Test@ab20d7c]" name="POST_Create_Success" duration-ms="377" started-at="2023-06-13T10:14:29 EET" description="200 Success" finished-at="2023-06-13T10:14:30 EET">
          <reporter-output>
          </reporter-output>
        </test-method> <!-- POST_Create_Success -->
        <test-method status="PASS" signature="POST_Create_Not_Success()[pri:2, instance:Test.POST_Device_Test@ab20d7c]" name="POST_Create_Not_Success" duration-ms="367" started-at="2023-06-13T10:14:30 EET" description="400 Not Success (Empty)" finished-at="2023-06-13T10:14:30 EET">
          <reporter-output>
          </reporter-output>
        </test-method> <!-- POST_Create_Not_Success -->
      </class> <!-- Test.POST_Device_Test -->
    </test> <!-- Command line test -->
  </suite> <!-- Command line suite -->
</testng-results>
